Event data descriptives
…
As can be observed above, the summary contains the number of events, activities, traces and cases, as well as the time span covered by the event log.

Cases

The cases function returns a data.frame which contains general descriptives about each individual case.

case_information <- cases(BPIC15_1)
case_information

## # A tibble: 1,199 × 10
##    case_concept.name trace_length number_of_activities     start_timestamp
##                <chr>        <int>                <int>              <dttm>
## 1           10009138           45                   45 2014-04-10 22:00:00
## 2           10051383           57                   56 2014-04-16 22:00:00
## 3           10053042           57                   56 2014-04-13 22:00:00
## 4           10083315           58                   57 2014-04-16 22:00:00
## 5           10093171           46                   46 2014-04-21 22:00:00
## 6           10128431           56                   55 2014-04-24 22:00:00
## 7           10153084           58                   57 2014-04-28 22:00:00
## 8           10154600           47                   47 2014-04-29 22:00:00
## 9           10186016           71                   70 2014-05-01 22:00:00
## 10          10186644           55                   54 2014-04-30 22:00:00
## # ... with 1,189 more rows, and 6 more variables:
## #   complete_timestamp <dttm>, trace <chr>, trace_id <dbl>,
## #   duration_in_days <dbl>, first_activity <fctr>, last_activity <fctr>
…
Activities

The activities functions shows the frequencies of the different activities.

activity_information <- activities(BPIC15_1)
activity_information

## # A tibble: 398 × 3
##    event_concept.name absolute_frequency relative_frequency
##                 <chr>              <int>              <dbl>
## 1        01_HOOFD_010               1199         0.02296187
## 2        01_HOOFD_015               1199         0.02296187
## 3        01_HOOFD_020               1194         0.02286612
## 4        01_HOOFD_180               1116         0.02137235
## 5      01_HOOFD_030_1               1111         0.02127660
## 6      01_HOOFD_030_2               1053         0.02016585
## 7        01_HOOFD_200                974         0.01865293
## 8        01_HOOFD_375                933         0.01786774
## 9         09_AH_I_010                933         0.01786774
## 10       01_HOOFD_380                930         0.01781029
## # ... with 388 more rows
…
