Metrics
…
Organizational Perspective

Resource Frequency

The resource frequency metric allows the computation of the
number/frequency of resources at the levels of log, case, activity,
resource, and resource-activity.

patients %>%
    resource_frequency("resource")

## # A tibble: 2,721 x 4
##    employee handling_id absolute relative
##    <fct>    <chr>          <int>    <dbl>
##  1 r1       1                  2 0.000368
##  2 r1       10                 2 0.000368
##  3 r1       100                2 0.000368
##  4 r1       101                2 0.000368
##  5 r1       102                2 0.000368
##  6 r1       103                2 0.000368
##  7 r1       104                2 0.000368
##  8 r1       105                2 0.000368
##  9 r1       106                2 0.000368
## 10 r1       107                2 0.000368
## # ... with 2,711 more rows
…
