Unleashing the power of R for event data
…
library(edeaR)
library(dplyr)
library(ggplot2)
data("BPIC14_incident_log")
data("BPIC14_incident_case_attributes")
BPIC14_incident_log %>% print

## Event log consisting of:
## 39911 events
## 2028 traces
## 4000 cases
## 36 activities
## 39911 activity instances
## 
## # A tibble: 39,911 × 8
##    incident_id          data_stamp incident_activity_number
##         <fctr>              <dttm>                   <fctr>
## 1    IM0000013 2013-02-13 12:03:35              001A3970723
## 2    IM0000013 2013-11-08 13:54:13              001A5891812
## 3    IM0000013 2013-11-08 13:50:18              001A5891796
## 4    IM0000013 2013-11-08 13:50:17              001A5891794
## 5    IM0000013 2013-11-08 13:50:18              001A5891795
## 6    IM0000013 2013-11-08 13:54:13              001A5891813
## 7    IM0000048 2013-02-06 13:10:52              001A3926349
## 8    IM0000048 2013-02-06 13:10:52              001A3926348
## 9    IM0000048 2013-02-06 15:15:03              001A3926671
## 10   IM0000048 2013-10-17 13:54:33              001A5709262
## # ... with 39,901 more rows, and 5 more variables:
## #   incident_activity_type <fctr>, assignment_group <fctr>,
## #   km_number <fctr>, interaction_id <fctr>, lifecycle <chr>

BPIC14_incident_case_attributes %>% print

## # A tibble: 4,000 × 28
##    ci_name_aff    ci_type_aff           ci_subtype_aff
##         <fctr>         <fctr>                   <fctr>
## 1    WBA000124    application    Web Based Application
## 2    SBA000662    application Server Based Application
## 3    SBA000607    application Server Based Application
## 4    SAP000005    application                      SAP
## 5    SUB000508 subapplication    Web Based Application
## 6    WBA000124    application    Web Based Application
## 7    WBA000124    application    Web Based Application
## 8    WBA000133    application    Web Based Application
## 9    WSR001424       computer           Windows Server
## 10   WBA000124    application    Web Based Application
## # ... with 3,990 more rows, and 25 more variables:
## #   service_component_wbs_aff <fctr>, incident_id <fctr>, status <fctr>,
## #   impact <ord>, urgency <ord>, priority <ord>, category <fctr>,
## #   km_number <fctr>, alert_status <fctr>, x_reassignments <int>,
## #   open_time <dttm>, reopen_time <dttm>, resolved_time <dttm>,
## #   close_time <dttm>, handle_time_hours <dbl>, closure_code <fctr>,
## #   x_related_interactions <int>, related_interaction <fctr>,
## #   x_related_incidents <int>, x_related_changes <int>,
## #   related_change <fctr>, ci_name_cby <fctr>, ci_type_cby <fctr>,
## #   ci_subtype_cby <fctr>, servicecomp_wbs_cby <fctr>

Suppose we are interested in inspecting the structuredness of this event log, and any possible relationship with performance. A first inspection is just to look at the number of different traces, i.e. variants in terms of activity sequences, which are present in the event log.

trace_coverage(BPIC14_incident_log, level_of_analysis = "trace") %>% print(width = Inf)

## # A tibble: 2,430 × 4
##                                                    trace absolute relative
##                                                    <chr>    <int>    <dbl>
## 1                               Open,Closed,Caused By CI      158  0.03950
## 2                               Open,Caused By CI,Closed      135  0.03375
## 3                    Open,Assignment,Closed,Caused By CI      118  0.02950
## 4                    Open,Assignment,Caused By CI,Closed       74  0.01850
## 5      Open,Status Change,Assignment,Closed,Caused By CI       61  0.01525
## 6      Open,Assignment,Status Change,Closed,Caused By CI       58  0.01450
## 7      Open,Status Change,Assignment,Caused By CI,Closed       57  0.01425
## 8      Open,Assignment,Status Change,Caused By CI,Closed       56  0.01400
## 9  Open,Status Change,Assignment,Mail to Customer,Closed       46  0.01150
## 10 Open,Assignment,Status Change,Mail to Customer,Closed       41  0.01025
##    cum_sum
##      <dbl>
## 1  0.03950
## 2  0.07325
## 3  0.10275
## 4  0.12125
## 5  0.13650
## 6  0.15100
## 7  0.16525
## 8  0.17925
## 9  0.19075
## 10 0.20100
## # ... with 2,420 more rows
…
When printing the filtered event log, it can be seen that all 22 cases have a different trace, i.e. activity sequence, which makes them unique in that sense. A visualization of the behaviour in a directed graph might be helpful to understand it better. The reader is refered to packages like igraph of markovchain for this visualization.

cluster_5 

## Event log consisting of:
## 2179 events
## 34 traces
## 34 cases
## 31 activities
## 2179 activity instances
## 
## # A tibble: 2,179 × 13
##    incident_id          data_stamp incident_activity_number
##         <fctr>              <dttm>                   <fctr>
## 1    IM0000013 2013-02-13 12:03:35              001A3970723
## 2    IM0000013 2013-11-08 13:54:13              001A5891812
## 3    IM0000013 2013-11-08 13:50:18              001A5891796
## 4    IM0000013 2013-11-08 13:50:17              001A5891794
## 5    IM0000013 2013-11-08 13:50:18              001A5891795
## 6    IM0000013 2013-11-08 13:54:13              001A5891813
## 7    IM0000048 2013-02-06 13:10:52              001A3926349
## 8    IM0000048 2013-02-06 13:10:52              001A3926348
## 9    IM0000048 2013-02-06 15:15:03              001A3926671
## 10   IM0000048 2013-10-17 13:54:33              001A5709262
## # ... with 2,169 more rows, and 10 more variables:
## #   incident_activity_type <fctr>, assignment_group <fctr>,
## #   km_number <fctr>, interaction_id <fctr>, lifecycle <chr>,
## #   throughput_time <dbl>, trace_length <int>, repetitions <dbl>,
## #   number_of_selfloops <dbl>, cluster <fctr>

cluster_5 %>% traces

## # A tibble: 34 × 4
##                                                                          trace
##                                                                          <chr>
## 1  Open,Status Change,Assignment,External Vendor Assignment,Operator Update,Ve
## 2  Open,Reassignment,Assignment,Description Update,Status Change,Update,Update
## 3  Update from customer,Reassignment,Update from customer,Assignment,Closed,Ca
## 4  Open,Reassignment,Assignment,Reassignment,Operator Update,Assignment,Assign
## 5  Open,Update from customer,Update from customer,Update from customer,Reassig
## 6  Open,Open,Update,Assignment,Status Change,Assignment,Reassignment,Operator 
## 7  Open,Update from customer,Status Change,Assignment,Update from customer,Ass
## 8  Open,Operator Update,Reassignment,Assignment,Update,Update,Reassignment,Ass
## 9  Open,Operator Update,Reassignment,Reassignment,Operator Update,Operator Upd
## 10 Open,Assignment,Reassignment,Assignment,Assignment,Problem Workaround,Statu
## # ... with 24 more rows, and 3 more variables: trace_id <dbl>,
## #   absolute_frequency <int>, relative_frequency <dbl>
