Getting your event log in the right format
…
Once you have the data op your pc, you can input the location to the eventlog_from_xes function. Alternatively, calling this function without any arguments, as is done below, will open a dialog-box, allowing us to navigate to the event log.

data <- eventlog_from_xes()

data

## Event log consisting of:
## 52217 events
## 1099 traces
## 1199 cases
## 398 activities
## 52217 activity instances
## 
## # A tibble: 52,217 × 15
##    case_concept.name event_question  event_dateFinished
##                <chr>          <chr>               <chr>
## 1           10009138          EMPTY 2014-04-14 00:00:00
## 2           10009138          False 2014-04-14 00:00:00
## 3           10009138          EMPTY 2014-04-14 00:00:00
## 4           10009138           True 2014-04-14 00:00:00
## 5           10009138          EMPTY 2014-04-14 00:00:00
## 6           10009138          EMPTY 2014-04-14 00:00:00
## 7           10009138          EMPTY 2014-04-14 00:00:00
## 8           10009138          False 2014-04-14 00:00:00
## 9           10009138          False 2014-04-14 00:00:00
## 10          10009138          EMPTY 2014-04-14 00:00:00
## # ... with 52,207 more rows, and 12 more variables: event_dueDate <chr>,
## #   event_action_code <chr>, event_activityNameEN <chr>,
## #   event_planned <chr>, event_time.timestamp <chr>,
## #   event_monitoringResource <chr>, event_org.resource <chr>,
## #   event_activityNameNL <chr>, event_concept.name <chr>,
## #   event_lifecycle.transition <chr>, event_dateStop <chr>,
## #   activity_instance <dbl>
…
## Warning in eventlog(eventlog = csv_example, case_id = "CASE", activity_id =
## "ACTIVITY", : No resource identifier provided nor found. Set to default: NA

log

## Event log consisting of:
## 12766 events
## 9 traces
## 1000 cases
## 6 activities
## 6383 activity instances
## 
## # A tibble: 12,766 × 5
##      CASE ACTIVITY ACTIVITY_INSTANCE LIFECYCLE           TIMESTAMP
##    <fctr>   <fctr>             <int>    <fctr>              <dttm>
## 1     CA1        A                 1     start 2015-01-01 01:23:45
## 2     CA1        B                 2     start 2015-01-03 01:23:45
## 3     CA1        C                 3     start 2015-01-05 01:23:45
## 4     CA1        D                 4     start 2015-01-06 01:23:45
## 5     CA1        E                 5     start 2015-01-07 01:23:45
## 6   CA365        A                 6     start 2015-01-01 01:23:45
## 7   CA365        B                 7     start 2015-01-03 01:23:45
## 8   CA365        C                 8     start 2015-01-05 01:23:45
## 9   CA365        D                 9     start 2015-01-06 01:23:45
## 10  CA365        E                10     start 2015-01-07 01:23:45
## # ... with 12,756 more rows
